G04*
G04 #@! TF.GenerationSoftware,Altium Limited,CircuitStudio,1.5.2 (1.5.2.30)*
G04*
G04 Layer_Color=65535*
%FSLAX24Y24*%
%MOIN*%
G70*
G01*
G75*
%ADD29C,0.0098*%
%ADD30C,0.0079*%
%ADD31C,0.0039*%
%ADD32R,0.1102X0.0091*%
D29*
X8730Y8701D02*
G03*
X8730Y8701I-49J0D01*
G01*
X16014D02*
G03*
X16014Y8701I-49J0D01*
G01*
X23297D02*
G03*
X23297Y8701I-49J0D01*
G01*
X30581D02*
G03*
X30581Y8701I-49J0D01*
G01*
X37864D02*
G03*
X37864Y8701I-49J0D01*
G01*
X8730Y18346D02*
G03*
X8730Y18346I-49J0D01*
G01*
X16014D02*
G03*
X16014Y18346I-49J0D01*
G01*
X23297D02*
G03*
X23297Y18346I-49J0D01*
G01*
X30581D02*
G03*
X30581Y18346I-49J0D01*
G01*
X37864D02*
G03*
X37864Y18346I-49J0D01*
G01*
D30*
X7352Y6801D02*
X9833D01*
X7352Y4321D02*
X9833D01*
X4419Y7234D02*
X7175D01*
X4419Y4321D02*
X7175D01*
Y7234D01*
X4262Y4520D02*
Y4776D01*
Y4520D02*
X4419Y4549D01*
X4262Y4776D02*
X4419Y4746D01*
Y4321D02*
Y4549D01*
X4262Y6780D02*
X4419Y6809D01*
X4262Y7035D02*
X4419Y7006D01*
X4262Y6780D02*
Y7035D01*
X4419Y7006D02*
Y7234D01*
Y4746D02*
Y6809D01*
X8041Y7028D02*
X8159D01*
X8041Y7303D02*
X8159D01*
X6870Y7972D02*
Y8091D01*
X7146Y7972D02*
Y8091D01*
X9783Y7579D02*
Y7972D01*
X8839Y7579D02*
Y7972D01*
X9282Y9114D02*
X9360D01*
X9282Y8799D02*
X9360D01*
X7382Y8071D02*
X8602D01*
X7382Y8465D02*
X8602D01*
X7382Y8071D02*
Y8465D01*
X8602Y8071D02*
Y8465D01*
X6594Y8032D02*
Y8425D01*
X5650Y8032D02*
Y8425D01*
X4429Y8032D02*
Y8425D01*
X5374Y8032D02*
Y8425D01*
X6939Y9321D02*
X9695D01*
X6939Y12234D02*
X9695D01*
X6939Y9321D02*
Y12234D01*
X9852Y11780D02*
Y12035D01*
X9695Y12006D02*
X9852Y12035D01*
X9695Y11809D02*
X9852Y11780D01*
X9695Y12006D02*
Y12234D01*
Y9746D02*
X9852Y9776D01*
X9695Y9549D02*
X9852Y9520D01*
Y9776D01*
X9695Y9321D02*
Y9549D01*
Y9746D02*
Y11809D01*
X6358Y11093D02*
Y11211D01*
X6634Y11093D02*
Y11211D01*
X5762Y10470D02*
X6010D01*
X5650Y11063D02*
Y11240D01*
X6122Y11063D02*
Y11240D01*
X4360Y9616D02*
Y11388D01*
X5463Y9616D02*
Y11388D01*
X4360Y9616D02*
X4459D01*
X4360Y11388D02*
X4459D01*
X5364D02*
X5463D01*
X5364Y9616D02*
X5463D01*
X5728Y9813D02*
Y9892D01*
X6043Y9813D02*
Y9892D01*
X6811Y4134D02*
X6549D01*
X7500Y12402D02*
X7238D01*
X10069Y12293D02*
X9807D01*
X9938Y12424D02*
Y12162D01*
X4360Y4232D02*
X4098D01*
X4229Y4363D02*
Y4101D01*
X14636Y6801D02*
X17116D01*
X14636Y4321D02*
X17116D01*
X11703Y7234D02*
X14459D01*
X11703Y4321D02*
X14459D01*
Y7234D01*
X11545Y4520D02*
Y4776D01*
Y4520D02*
X11703Y4549D01*
X11545Y4776D02*
X11703Y4746D01*
Y4321D02*
Y4549D01*
X11545Y6780D02*
X11703Y6809D01*
X11545Y7035D02*
X11703Y7006D01*
X11545Y6780D02*
Y7035D01*
X11703Y7006D02*
Y7234D01*
Y4746D02*
Y6809D01*
X15325Y7028D02*
X15443D01*
X15325Y7303D02*
X15443D01*
X14154Y7972D02*
Y8091D01*
X14429Y7972D02*
Y8091D01*
X17067Y7579D02*
Y7972D01*
X16122Y7579D02*
Y7972D01*
X16565Y9114D02*
X16644D01*
X16565Y8799D02*
X16644D01*
X14665Y8071D02*
X15886D01*
X14665Y8465D02*
X15886D01*
X14665Y8071D02*
Y8465D01*
X15886Y8071D02*
Y8465D01*
X13878Y8032D02*
Y8425D01*
X12933Y8032D02*
Y8425D01*
X11713Y8032D02*
Y8425D01*
X12657Y8032D02*
Y8425D01*
X14222Y9321D02*
X16978D01*
X14222Y12234D02*
X16978D01*
X14222Y9321D02*
Y12234D01*
X17136Y11780D02*
Y12035D01*
X16978Y12006D02*
X17136Y12035D01*
X16978Y11809D02*
X17136Y11780D01*
X16978Y12006D02*
Y12234D01*
Y9746D02*
X17136Y9776D01*
X16978Y9549D02*
X17136Y9520D01*
Y9776D01*
X16978Y9321D02*
Y9549D01*
Y9746D02*
Y11809D01*
X13642Y11093D02*
Y11211D01*
X13917Y11093D02*
Y11211D01*
X13045Y10470D02*
X13293D01*
X12933Y11063D02*
Y11240D01*
X13406Y11063D02*
Y11240D01*
X11644Y9616D02*
Y11388D01*
X12746Y9616D02*
Y11388D01*
X11644Y9616D02*
X11742D01*
X11644Y11388D02*
X11742D01*
X12648D02*
X12746D01*
X12648Y9616D02*
X12746D01*
X13012Y9813D02*
Y9892D01*
X13327Y9813D02*
Y9892D01*
X14094Y4134D02*
X13832D01*
X14783Y12402D02*
X14521D01*
X17352Y12293D02*
X17090D01*
X17221Y12424D02*
Y12162D01*
X11644Y4232D02*
X11381D01*
X11513Y4363D02*
Y4101D01*
X21919Y6801D02*
X24400D01*
X21919Y4321D02*
X24400D01*
X18986Y7234D02*
X21742D01*
X18986Y4321D02*
X21742D01*
Y7234D01*
X18829Y4520D02*
Y4776D01*
Y4520D02*
X18986Y4549D01*
X18829Y4776D02*
X18986Y4746D01*
Y4321D02*
Y4549D01*
X18829Y6780D02*
X18986Y6809D01*
X18829Y7035D02*
X18986Y7006D01*
X18829Y6780D02*
Y7035D01*
X18986Y7006D02*
Y7234D01*
Y4746D02*
Y6809D01*
X22608Y7028D02*
X22726D01*
X22608Y7303D02*
X22726D01*
X21437Y7972D02*
Y8091D01*
X21713Y7972D02*
Y8091D01*
X24350Y7579D02*
Y7972D01*
X23406Y7579D02*
Y7972D01*
X23848Y9114D02*
X23927D01*
X23848Y8799D02*
X23927D01*
X21949Y8071D02*
X23169D01*
X21949Y8465D02*
X23169D01*
X21949Y8071D02*
Y8465D01*
X23169Y8071D02*
Y8465D01*
X21161Y8032D02*
Y8425D01*
X20217Y8032D02*
Y8425D01*
X18996Y8032D02*
Y8425D01*
X19941Y8032D02*
Y8425D01*
X21506Y9321D02*
X24262D01*
X21506Y12234D02*
X24262D01*
X21506Y9321D02*
Y12234D01*
X24419Y11780D02*
Y12035D01*
X24262Y12006D02*
X24419Y12035D01*
X24262Y11809D02*
X24419Y11780D01*
X24262Y12006D02*
Y12234D01*
Y9746D02*
X24419Y9776D01*
X24262Y9549D02*
X24419Y9520D01*
Y9776D01*
X24262Y9321D02*
Y9549D01*
Y9746D02*
Y11809D01*
X20925Y11093D02*
Y11211D01*
X21201Y11093D02*
Y11211D01*
X20329Y10470D02*
X20577D01*
X20217Y11063D02*
Y11240D01*
X20689Y11063D02*
Y11240D01*
X18927Y9616D02*
Y11388D01*
X20030Y9616D02*
Y11388D01*
X18927Y9616D02*
X19026D01*
X18927Y11388D02*
X19026D01*
X19931D02*
X20030D01*
X19931Y9616D02*
X20030D01*
X20295Y9813D02*
Y9892D01*
X20610Y9813D02*
Y9892D01*
X21378Y4134D02*
X21116D01*
X22067Y12402D02*
X21805D01*
X24636Y12293D02*
X24373D01*
X24505Y12424D02*
Y12162D01*
X18927Y4232D02*
X18665D01*
X18796Y4363D02*
Y4101D01*
X29203Y6801D02*
X31683D01*
X29203Y4321D02*
X31683D01*
X26270Y7234D02*
X29026D01*
X26270Y4321D02*
X29026D01*
Y7234D01*
X26112Y4520D02*
Y4776D01*
Y4520D02*
X26270Y4549D01*
X26112Y4776D02*
X26270Y4746D01*
Y4321D02*
Y4549D01*
X26112Y6780D02*
X26270Y6809D01*
X26112Y7035D02*
X26270Y7006D01*
X26112Y6780D02*
Y7035D01*
X26270Y7006D02*
Y7234D01*
Y4746D02*
Y6809D01*
X29892Y7028D02*
X30010D01*
X29892Y7303D02*
X30010D01*
X28720Y7972D02*
Y8091D01*
X28996Y7972D02*
Y8091D01*
X31634Y7579D02*
Y7972D01*
X30689Y7579D02*
Y7972D01*
X31132Y9114D02*
X31211D01*
X31132Y8799D02*
X31211D01*
X29232Y8071D02*
X30453D01*
X29232Y8465D02*
X30453D01*
X29232Y8071D02*
Y8465D01*
X30453Y8071D02*
Y8465D01*
X28445Y8032D02*
Y8425D01*
X27500Y8032D02*
Y8425D01*
X26280Y8032D02*
Y8425D01*
X27224Y8032D02*
Y8425D01*
X28789Y9321D02*
X31545D01*
X28789Y12234D02*
X31545D01*
X28789Y9321D02*
Y12234D01*
X31703Y11780D02*
Y12035D01*
X31545Y12006D02*
X31703Y12035D01*
X31545Y11809D02*
X31703Y11780D01*
X31545Y12006D02*
Y12234D01*
Y9746D02*
X31703Y9776D01*
X31545Y9549D02*
X31703Y9520D01*
Y9776D01*
X31545Y9321D02*
Y9549D01*
Y9746D02*
Y11809D01*
X28209Y11093D02*
Y11211D01*
X28484Y11093D02*
Y11211D01*
X27612Y10470D02*
X27860D01*
X27500Y11063D02*
Y11240D01*
X27972Y11063D02*
Y11240D01*
X26211Y9616D02*
Y11388D01*
X27313Y9616D02*
Y11388D01*
X26211Y9616D02*
X26309D01*
X26211Y11388D02*
X26309D01*
X27215D02*
X27313D01*
X27215Y9616D02*
X27313D01*
X27579Y9813D02*
Y9892D01*
X27894Y9813D02*
Y9892D01*
X28661Y4134D02*
X28399D01*
X29350Y12402D02*
X29088D01*
X31919Y12293D02*
X31657D01*
X31788Y12424D02*
Y12162D01*
X26211Y4232D02*
X25948D01*
X26079Y4363D02*
Y4101D01*
X36486Y6801D02*
X38967D01*
X36486Y4321D02*
X38967D01*
X33553Y7234D02*
X36309D01*
X33553Y4321D02*
X36309D01*
Y7234D01*
X33396Y4520D02*
Y4776D01*
Y4520D02*
X33553Y4549D01*
X33396Y4776D02*
X33553Y4746D01*
Y4321D02*
Y4549D01*
X33396Y6780D02*
X33553Y6809D01*
X33396Y7035D02*
X33553Y7006D01*
X33396Y6780D02*
Y7035D01*
X33553Y7006D02*
Y7234D01*
Y4746D02*
Y6809D01*
X37175Y7028D02*
X37293D01*
X37175Y7303D02*
X37293D01*
X36004Y7972D02*
Y8091D01*
X36280Y7972D02*
Y8091D01*
X38917Y7579D02*
Y7972D01*
X37972Y7579D02*
Y7972D01*
X38415Y9114D02*
X38494D01*
X38415Y8799D02*
X38494D01*
X36516Y8071D02*
X37736D01*
X36516Y8465D02*
X37736D01*
X36516Y8071D02*
Y8465D01*
X37736Y8071D02*
Y8465D01*
X35728Y8032D02*
Y8425D01*
X34783Y8032D02*
Y8425D01*
X33563Y8032D02*
Y8425D01*
X34508Y8032D02*
Y8425D01*
X36073Y9321D02*
X38829D01*
X36073Y12234D02*
X38829D01*
X36073Y9321D02*
Y12234D01*
X38986Y11780D02*
Y12035D01*
X38829Y12006D02*
X38986Y12035D01*
X38829Y11809D02*
X38986Y11780D01*
X38829Y12006D02*
Y12234D01*
Y9746D02*
X38986Y9776D01*
X38829Y9549D02*
X38986Y9520D01*
Y9776D01*
X38829Y9321D02*
Y9549D01*
Y9746D02*
Y11809D01*
X35492Y11093D02*
Y11211D01*
X35768Y11093D02*
Y11211D01*
X34896Y10470D02*
X35144D01*
X34783Y11063D02*
Y11240D01*
X35256Y11063D02*
Y11240D01*
X33494Y9616D02*
Y11388D01*
X34596Y9616D02*
Y11388D01*
X33494Y9616D02*
X33593D01*
X33494Y11388D02*
X33593D01*
X34498D02*
X34596D01*
X34498Y9616D02*
X34596D01*
X34862Y9813D02*
Y9892D01*
X35177Y9813D02*
Y9892D01*
X35945Y4134D02*
X35682D01*
X36634Y12402D02*
X36371D01*
X39203Y12293D02*
X38940D01*
X39072Y12424D02*
Y12162D01*
X33494Y4232D02*
X33232D01*
X33363Y4363D02*
Y4101D01*
X7352Y16447D02*
X9833D01*
X7352Y13967D02*
X9833D01*
X4419Y16880D02*
X7175D01*
X4419Y13967D02*
X7175D01*
Y16880D01*
X4262Y14165D02*
Y14421D01*
Y14165D02*
X4419Y14195D01*
X4262Y14421D02*
X4419Y14392D01*
Y13967D02*
Y14195D01*
X4262Y16425D02*
X4419Y16455D01*
X4262Y16681D02*
X4419Y16652D01*
X4262Y16425D02*
Y16681D01*
X4419Y16652D02*
Y16880D01*
Y14392D02*
Y16455D01*
X8041Y16673D02*
X8159D01*
X8041Y16949D02*
X8159D01*
X6870Y17618D02*
Y17736D01*
X7146Y17618D02*
Y17736D01*
X9783Y17224D02*
Y17618D01*
X8839Y17224D02*
Y17618D01*
X9282Y18760D02*
X9360D01*
X9282Y18445D02*
X9360D01*
X7382Y17717D02*
X8602D01*
X7382Y18110D02*
X8602D01*
X7382Y17717D02*
Y18110D01*
X8602Y17717D02*
Y18110D01*
X6594Y17677D02*
Y18071D01*
X5650Y17677D02*
Y18071D01*
X4429Y17677D02*
Y18071D01*
X5374Y17677D02*
Y18071D01*
X6939Y18967D02*
X9695D01*
X6939Y21880D02*
X9695D01*
X6939Y18967D02*
Y21880D01*
X9852Y21425D02*
Y21681D01*
X9695Y21652D02*
X9852Y21681D01*
X9695Y21455D02*
X9852Y21425D01*
X9695Y21652D02*
Y21880D01*
Y19392D02*
X9852Y19421D01*
X9695Y19195D02*
X9852Y19165D01*
Y19421D01*
X9695Y18967D02*
Y19195D01*
Y19392D02*
Y21455D01*
X6358Y20738D02*
Y20856D01*
X6634Y20738D02*
Y20856D01*
X5762Y20116D02*
X6010D01*
X5650Y20709D02*
Y20886D01*
X6122Y20709D02*
Y20886D01*
X4360Y19262D02*
Y21033D01*
X5463Y19262D02*
Y21033D01*
X4360Y19262D02*
X4459D01*
X4360Y21033D02*
X4459D01*
X5364D02*
X5463D01*
X5364Y19262D02*
X5463D01*
X5728Y19459D02*
Y19537D01*
X6043Y19459D02*
Y19537D01*
X6811Y13779D02*
X6549D01*
X7500Y22047D02*
X7238D01*
X10069Y21939D02*
X9807D01*
X9938Y22070D02*
Y21808D01*
X4360Y13878D02*
X4098D01*
X4229Y14009D02*
Y13747D01*
X14636Y16447D02*
X17116D01*
X14636Y13967D02*
X17116D01*
X11703Y16880D02*
X14459D01*
X11703Y13967D02*
X14459D01*
Y16880D01*
X11545Y14165D02*
Y14421D01*
Y14165D02*
X11703Y14195D01*
X11545Y14421D02*
X11703Y14392D01*
Y13967D02*
Y14195D01*
X11545Y16425D02*
X11703Y16455D01*
X11545Y16681D02*
X11703Y16652D01*
X11545Y16425D02*
Y16681D01*
X11703Y16652D02*
Y16880D01*
Y14392D02*
Y16455D01*
X15325Y16673D02*
X15443D01*
X15325Y16949D02*
X15443D01*
X14154Y17618D02*
Y17736D01*
X14429Y17618D02*
Y17736D01*
X17067Y17224D02*
Y17618D01*
X16122Y17224D02*
Y17618D01*
X16565Y18760D02*
X16644D01*
X16565Y18445D02*
X16644D01*
X14665Y17717D02*
X15886D01*
X14665Y18110D02*
X15886D01*
X14665Y17717D02*
Y18110D01*
X15886Y17717D02*
Y18110D01*
X13878Y17677D02*
Y18071D01*
X12933Y17677D02*
Y18071D01*
X11713Y17677D02*
Y18071D01*
X12657Y17677D02*
Y18071D01*
X14222Y18967D02*
X16978D01*
X14222Y21880D02*
X16978D01*
X14222Y18967D02*
Y21880D01*
X17136Y21425D02*
Y21681D01*
X16978Y21652D02*
X17136Y21681D01*
X16978Y21455D02*
X17136Y21425D01*
X16978Y21652D02*
Y21880D01*
Y19392D02*
X17136Y19421D01*
X16978Y19195D02*
X17136Y19165D01*
Y19421D01*
X16978Y18967D02*
Y19195D01*
Y19392D02*
Y21455D01*
X13642Y20738D02*
Y20856D01*
X13917Y20738D02*
Y20856D01*
X13045Y20116D02*
X13293D01*
X12933Y20709D02*
Y20886D01*
X13406Y20709D02*
Y20886D01*
X11644Y19262D02*
Y21033D01*
X12746Y19262D02*
Y21033D01*
X11644Y19262D02*
X11742D01*
X11644Y21033D02*
X11742D01*
X12648D02*
X12746D01*
X12648Y19262D02*
X12746D01*
X13012Y19459D02*
Y19537D01*
X13327Y19459D02*
Y19537D01*
X14094Y13779D02*
X13832D01*
X14783Y22047D02*
X14521D01*
X17352Y21939D02*
X17090D01*
X17221Y22070D02*
Y21808D01*
X11644Y13878D02*
X11381D01*
X11513Y14009D02*
Y13747D01*
X21919Y16447D02*
X24400D01*
X21919Y13967D02*
X24400D01*
X18986Y16880D02*
X21742D01*
X18986Y13967D02*
X21742D01*
Y16880D01*
X18829Y14165D02*
Y14421D01*
Y14165D02*
X18986Y14195D01*
X18829Y14421D02*
X18986Y14392D01*
Y13967D02*
Y14195D01*
X18829Y16425D02*
X18986Y16455D01*
X18829Y16681D02*
X18986Y16652D01*
X18829Y16425D02*
Y16681D01*
X18986Y16652D02*
Y16880D01*
Y14392D02*
Y16455D01*
X22608Y16673D02*
X22726D01*
X22608Y16949D02*
X22726D01*
X21437Y17618D02*
Y17736D01*
X21713Y17618D02*
Y17736D01*
X24350Y17224D02*
Y17618D01*
X23406Y17224D02*
Y17618D01*
X23848Y18760D02*
X23927D01*
X23848Y18445D02*
X23927D01*
X21949Y17717D02*
X23169D01*
X21949Y18110D02*
X23169D01*
X21949Y17717D02*
Y18110D01*
X23169Y17717D02*
Y18110D01*
X21161Y17677D02*
Y18071D01*
X20217Y17677D02*
Y18071D01*
X18996Y17677D02*
Y18071D01*
X19941Y17677D02*
Y18071D01*
X21506Y18967D02*
X24262D01*
X21506Y21880D02*
X24262D01*
X21506Y18967D02*
Y21880D01*
X24419Y21425D02*
Y21681D01*
X24262Y21652D02*
X24419Y21681D01*
X24262Y21455D02*
X24419Y21425D01*
X24262Y21652D02*
Y21880D01*
Y19392D02*
X24419Y19421D01*
X24262Y19195D02*
X24419Y19165D01*
Y19421D01*
X24262Y18967D02*
Y19195D01*
Y19392D02*
Y21455D01*
X20925Y20738D02*
Y20856D01*
X21201Y20738D02*
Y20856D01*
X20329Y20116D02*
X20577D01*
X20217Y20709D02*
Y20886D01*
X20689Y20709D02*
Y20886D01*
X18927Y19262D02*
Y21033D01*
X20030Y19262D02*
Y21033D01*
X18927Y19262D02*
X19026D01*
X18927Y21033D02*
X19026D01*
X19931D02*
X20030D01*
X19931Y19262D02*
X20030D01*
X20295Y19459D02*
Y19537D01*
X20610Y19459D02*
Y19537D01*
X21378Y13779D02*
X21116D01*
X22067Y22047D02*
X21805D01*
X24636Y21939D02*
X24373D01*
X24505Y22070D02*
Y21808D01*
X18927Y13878D02*
X18665D01*
X18796Y14009D02*
Y13747D01*
X29203Y16447D02*
X31683D01*
X29203Y13967D02*
X31683D01*
X26270Y16880D02*
X29026D01*
X26270Y13967D02*
X29026D01*
Y16880D01*
X26112Y14165D02*
Y14421D01*
Y14165D02*
X26270Y14195D01*
X26112Y14421D02*
X26270Y14392D01*
Y13967D02*
Y14195D01*
X26112Y16425D02*
X26270Y16455D01*
X26112Y16681D02*
X26270Y16652D01*
X26112Y16425D02*
Y16681D01*
X26270Y16652D02*
Y16880D01*
Y14392D02*
Y16455D01*
X29892Y16673D02*
X30010D01*
X29892Y16949D02*
X30010D01*
X28720Y17618D02*
Y17736D01*
X28996Y17618D02*
Y17736D01*
X31634Y17224D02*
Y17618D01*
X30689Y17224D02*
Y17618D01*
X31132Y18760D02*
X31211D01*
X31132Y18445D02*
X31211D01*
X29232Y17717D02*
X30453D01*
X29232Y18110D02*
X30453D01*
X29232Y17717D02*
Y18110D01*
X30453Y17717D02*
Y18110D01*
X28445Y17677D02*
Y18071D01*
X27500Y17677D02*
Y18071D01*
X26280Y17677D02*
Y18071D01*
X27224Y17677D02*
Y18071D01*
X28789Y18967D02*
X31545D01*
X28789Y21880D02*
X31545D01*
X28789Y18967D02*
Y21880D01*
X31703Y21425D02*
Y21681D01*
X31545Y21652D02*
X31703Y21681D01*
X31545Y21455D02*
X31703Y21425D01*
X31545Y21652D02*
Y21880D01*
Y19392D02*
X31703Y19421D01*
X31545Y19195D02*
X31703Y19165D01*
Y19421D01*
X31545Y18967D02*
Y19195D01*
Y19392D02*
Y21455D01*
X28209Y20738D02*
Y20856D01*
X28484Y20738D02*
Y20856D01*
X27612Y20116D02*
X27860D01*
X27500Y20709D02*
Y20886D01*
X27972Y20709D02*
Y20886D01*
X26211Y19262D02*
Y21033D01*
X27313Y19262D02*
Y21033D01*
X26211Y19262D02*
X26309D01*
X26211Y21033D02*
X26309D01*
X27215D02*
X27313D01*
X27215Y19262D02*
X27313D01*
X27579Y19459D02*
Y19537D01*
X27894Y19459D02*
Y19537D01*
X28661Y13779D02*
X28399D01*
X29350Y22047D02*
X29088D01*
X31919Y21939D02*
X31657D01*
X31788Y22070D02*
Y21808D01*
X26211Y13878D02*
X25948D01*
X26079Y14009D02*
Y13747D01*
X36486Y16447D02*
X38967D01*
X36486Y13967D02*
X38967D01*
X33553Y16880D02*
X36309D01*
X33553Y13967D02*
X36309D01*
Y16880D01*
X33396Y14165D02*
Y14421D01*
Y14165D02*
X33553Y14195D01*
X33396Y14421D02*
X33553Y14392D01*
Y13967D02*
Y14195D01*
X33396Y16425D02*
X33553Y16455D01*
X33396Y16681D02*
X33553Y16652D01*
X33396Y16425D02*
Y16681D01*
X33553Y16652D02*
Y16880D01*
Y14392D02*
Y16455D01*
X37175Y16673D02*
X37293D01*
X37175Y16949D02*
X37293D01*
X36004Y17618D02*
Y17736D01*
X36280Y17618D02*
Y17736D01*
X38917Y17224D02*
Y17618D01*
X37972Y17224D02*
Y17618D01*
X38415Y18760D02*
X38494D01*
X38415Y18445D02*
X38494D01*
X36516Y17717D02*
X37736D01*
X36516Y18110D02*
X37736D01*
X36516Y17717D02*
Y18110D01*
X37736Y17717D02*
Y18110D01*
X35728Y17677D02*
Y18071D01*
X34783Y17677D02*
Y18071D01*
X33563Y17677D02*
Y18071D01*
X34508Y17677D02*
Y18071D01*
X36073Y18967D02*
X38829D01*
X36073Y21880D02*
X38829D01*
X36073Y18967D02*
Y21880D01*
X38986Y21425D02*
Y21681D01*
X38829Y21652D02*
X38986Y21681D01*
X38829Y21455D02*
X38986Y21425D01*
X38829Y21652D02*
Y21880D01*
Y19392D02*
X38986Y19421D01*
X38829Y19195D02*
X38986Y19165D01*
Y19421D01*
X38829Y18967D02*
Y19195D01*
Y19392D02*
Y21455D01*
X35492Y20738D02*
Y20856D01*
X35768Y20738D02*
Y20856D01*
X34896Y20116D02*
X35144D01*
X34783Y20709D02*
Y20886D01*
X35256Y20709D02*
Y20886D01*
X33494Y19262D02*
Y21033D01*
X34596Y19262D02*
Y21033D01*
X33494Y19262D02*
X33593D01*
X33494Y21033D02*
X33593D01*
X34498D02*
X34596D01*
X34498Y19262D02*
X34596D01*
X34862Y19459D02*
Y19537D01*
X35177Y19459D02*
Y19537D01*
X35945Y13779D02*
X35682D01*
X36634Y22047D02*
X36371D01*
X39203Y21939D02*
X38940D01*
X39072Y22070D02*
Y21808D01*
X33494Y13878D02*
X33232D01*
X33363Y14009D02*
Y13747D01*
D31*
X9094Y8022D02*
X9055Y8061D01*
X8976D01*
X8937Y8022D01*
Y7864D01*
X8976Y7825D01*
X9055D01*
X9094Y7864D01*
X9173Y7825D02*
X9252D01*
X9213D01*
Y8061D01*
X9173Y8022D01*
X7293Y7077D02*
X7254Y7037D01*
Y6959D01*
X7293Y6919D01*
X7451D01*
X7490Y6959D01*
Y7037D01*
X7451Y7077D01*
X7490Y7313D02*
Y7155D01*
X7333Y7313D01*
X7293D01*
X7254Y7274D01*
Y7195D01*
X7293Y7155D01*
X6900Y8829D02*
X6860Y8789D01*
Y8711D01*
X6900Y8671D01*
X7057D01*
X7096Y8711D01*
Y8789D01*
X7057Y8829D01*
X6900Y8907D02*
X6860Y8947D01*
Y9025D01*
X6900Y9065D01*
X6939D01*
X6978Y9025D01*
Y8986D01*
Y9025D01*
X7018Y9065D01*
X7057D01*
X7096Y9025D01*
Y8947D01*
X7057Y8907D01*
X5876Y8484D02*
X5837Y8524D01*
X5758D01*
X5719Y8484D01*
Y8327D01*
X5758Y8287D01*
X5837D01*
X5876Y8327D01*
X6073Y8287D02*
Y8524D01*
X5955Y8405D01*
X6112D01*
X6457Y12283D02*
X6417Y12323D01*
X6339D01*
X6299Y12283D01*
Y12126D01*
X6339Y12087D01*
X6417D01*
X6457Y12126D01*
X6693Y12323D02*
X6535D01*
Y12205D01*
X6614Y12244D01*
X6653D01*
X6693Y12205D01*
Y12126D01*
X6653Y12087D01*
X6575D01*
X6535Y12126D01*
X4734Y12461D02*
Y12224D01*
X4852D01*
X4892Y12264D01*
Y12421D01*
X4852Y12461D01*
X4734D01*
X4970Y12224D02*
X5049D01*
X5010D01*
Y12461D01*
X4970Y12421D01*
X5709Y12431D02*
Y12195D01*
X5827D01*
X5866Y12234D01*
Y12392D01*
X5827Y12431D01*
X5709D01*
X6102Y12195D02*
X5945D01*
X6102Y12352D01*
Y12392D01*
X6063Y12431D01*
X5984D01*
X5945Y12392D01*
X4695Y8514D02*
X4537D01*
Y8396D01*
X4616D01*
X4537D01*
Y8278D01*
X4774D02*
X4852D01*
X4813D01*
Y8514D01*
X4774Y8474D01*
X8445Y6260D02*
Y6024D01*
X8602D01*
X8681D02*
X8760D01*
X8720D01*
Y6260D01*
X8681Y6220D01*
X6299Y10266D02*
Y10502D01*
X6417D01*
X6457Y10463D01*
Y10384D01*
X6417Y10344D01*
X6299D01*
X6378D02*
X6457Y10266D01*
X6693D02*
X6535D01*
X6693Y10423D01*
Y10463D01*
X6653Y10502D01*
X6575D01*
X6535Y10463D01*
X9783Y9203D02*
Y9439D01*
X9902D01*
X9941Y9400D01*
Y9321D01*
X9902Y9281D01*
X9783D01*
X9862D02*
X9941Y9203D01*
X10020D02*
X10098D01*
X10059D01*
Y9439D01*
X10020Y9400D01*
X6161Y9203D02*
Y9439D01*
X6279D01*
X6319Y9400D01*
Y9321D01*
X6279Y9281D01*
X6161D01*
X6240D02*
X6319Y9203D01*
X6398Y9400D02*
X6437Y9439D01*
X6516D01*
X6555Y9400D01*
Y9360D01*
X6516Y9321D01*
X6476D01*
X6516D01*
X6555Y9281D01*
Y9242D01*
X6516Y9203D01*
X6437D01*
X6398Y9242D01*
X8219Y8386D02*
Y8189D01*
X8258Y8150D01*
X8337D01*
X8376Y8189D01*
Y8386D01*
X8455Y8150D02*
X8533D01*
X8494D01*
Y8386D01*
X8455Y8346D01*
X8307Y11772D02*
X8228D01*
X8268D01*
Y11575D01*
X8228Y11535D01*
X8189D01*
X8150Y11575D01*
X8386Y11535D02*
X8464D01*
X8425D01*
Y11772D01*
X8386Y11732D01*
X5758Y6732D02*
X5679D01*
X5718D01*
Y6535D01*
X5679Y6496D01*
X5640D01*
X5600Y6535D01*
X5994Y6496D02*
X5837D01*
X5994Y6653D01*
Y6693D01*
X5955Y6732D01*
X5876D01*
X5837Y6693D01*
X9774Y10758D02*
X9813Y10679D01*
X9892Y10600D01*
X9970D01*
X10010Y10640D01*
Y10718D01*
X9970Y10758D01*
X9931D01*
X9892Y10718D01*
Y10600D01*
X9774Y10994D02*
X9813Y10915D01*
X9892Y10837D01*
X9970D01*
X10010Y10876D01*
Y10955D01*
X9970Y10994D01*
X9931D01*
X9892Y10955D01*
Y10837D01*
X9813Y11073D02*
X9774Y11112D01*
Y11191D01*
X9813Y11230D01*
X9970D01*
X10010Y11191D01*
Y11112D01*
X9970Y11073D01*
X9813D01*
X10010Y11309D02*
X9852D01*
Y11348D01*
X9892Y11388D01*
X10010D01*
X9892D01*
X9852Y11427D01*
X9892Y11466D01*
X10010D01*
Y11545D02*
X9852D01*
X9774Y11624D01*
X9852Y11702D01*
X10010D01*
X9892D01*
Y11545D01*
X9784Y10000D02*
Y9921D01*
X9823Y9882D01*
X9980D01*
X10020Y9921D01*
Y10000D01*
X9980Y10039D01*
X9823D01*
X9784Y10000D01*
X9862Y10118D02*
X9980D01*
X10020Y10157D01*
Y10275D01*
X9862D01*
X9823Y10394D02*
X9862D01*
Y10354D01*
Y10433D01*
Y10394D01*
X9980D01*
X10020Y10433D01*
X4114Y5108D02*
Y5187D01*
Y5148D01*
X4350D01*
Y5108D01*
Y5187D01*
Y5305D02*
X4193D01*
Y5423D01*
X4232Y5462D01*
X4350D01*
Y5935D02*
Y5777D01*
X4193Y5935D01*
X4154D01*
X4114Y5895D01*
Y5817D01*
X4154Y5777D01*
X4350Y6132D02*
X4114D01*
X4232Y6013D01*
Y6171D01*
X4114Y6250D02*
X4272D01*
X4350Y6328D01*
X4272Y6407D01*
X4114D01*
X16378Y8022D02*
X16339Y8061D01*
X16260D01*
X16220Y8022D01*
Y7864D01*
X16260Y7825D01*
X16339D01*
X16378Y7864D01*
X16457Y7825D02*
X16535D01*
X16496D01*
Y8061D01*
X16457Y8022D01*
X14577Y7077D02*
X14537Y7037D01*
Y6959D01*
X14577Y6919D01*
X14734D01*
X14774Y6959D01*
Y7037D01*
X14734Y7077D01*
X14774Y7313D02*
Y7155D01*
X14616Y7313D01*
X14577D01*
X14537Y7274D01*
Y7195D01*
X14577Y7155D01*
X14183Y8829D02*
X14144Y8789D01*
Y8711D01*
X14183Y8671D01*
X14341D01*
X14380Y8711D01*
Y8789D01*
X14341Y8829D01*
X14183Y8907D02*
X14144Y8947D01*
Y9025D01*
X14183Y9065D01*
X14222D01*
X14262Y9025D01*
Y8986D01*
Y9025D01*
X14301Y9065D01*
X14341D01*
X14380Y9025D01*
Y8947D01*
X14341Y8907D01*
X13159Y8484D02*
X13120Y8524D01*
X13041D01*
X13002Y8484D01*
Y8327D01*
X13041Y8287D01*
X13120D01*
X13159Y8327D01*
X13356Y8287D02*
Y8524D01*
X13238Y8405D01*
X13396D01*
X13740Y12283D02*
X13701Y12323D01*
X13622D01*
X13583Y12283D01*
Y12126D01*
X13622Y12087D01*
X13701D01*
X13740Y12126D01*
X13976Y12323D02*
X13819D01*
Y12205D01*
X13898Y12244D01*
X13937D01*
X13976Y12205D01*
Y12126D01*
X13937Y12087D01*
X13858D01*
X13819Y12126D01*
X12018Y12461D02*
Y12224D01*
X12136D01*
X12175Y12264D01*
Y12421D01*
X12136Y12461D01*
X12018D01*
X12254Y12224D02*
X12333D01*
X12293D01*
Y12461D01*
X12254Y12421D01*
X12992Y12431D02*
Y12195D01*
X13110D01*
X13150Y12234D01*
Y12392D01*
X13110Y12431D01*
X12992D01*
X13386Y12195D02*
X13228D01*
X13386Y12352D01*
Y12392D01*
X13346Y12431D01*
X13268D01*
X13228Y12392D01*
X11978Y8514D02*
X11821D01*
Y8396D01*
X11900D01*
X11821D01*
Y8278D01*
X12057D02*
X12136D01*
X12096D01*
Y8514D01*
X12057Y8474D01*
X15728Y6260D02*
Y6024D01*
X15886D01*
X15964D02*
X16043D01*
X16004D01*
Y6260D01*
X15964Y6220D01*
X13583Y10266D02*
Y10502D01*
X13701D01*
X13740Y10463D01*
Y10384D01*
X13701Y10344D01*
X13583D01*
X13661D02*
X13740Y10266D01*
X13976D02*
X13819D01*
X13976Y10423D01*
Y10463D01*
X13937Y10502D01*
X13858D01*
X13819Y10463D01*
X17067Y9203D02*
Y9439D01*
X17185D01*
X17224Y9400D01*
Y9321D01*
X17185Y9281D01*
X17067D01*
X17146D02*
X17224Y9203D01*
X17303D02*
X17382D01*
X17342D01*
Y9439D01*
X17303Y9400D01*
X13445Y9203D02*
Y9439D01*
X13563D01*
X13602Y9400D01*
Y9321D01*
X13563Y9281D01*
X13445D01*
X13524D02*
X13602Y9203D01*
X13681Y9400D02*
X13720Y9439D01*
X13799D01*
X13838Y9400D01*
Y9360D01*
X13799Y9321D01*
X13760D01*
X13799D01*
X13838Y9281D01*
Y9242D01*
X13799Y9203D01*
X13720D01*
X13681Y9242D01*
X15502Y8386D02*
Y8189D01*
X15541Y8150D01*
X15620D01*
X15659Y8189D01*
Y8386D01*
X15738Y8150D02*
X15817D01*
X15777D01*
Y8386D01*
X15738Y8346D01*
X15590Y11772D02*
X15512D01*
X15551D01*
Y11575D01*
X15512Y11535D01*
X15472D01*
X15433Y11575D01*
X15669Y11535D02*
X15748D01*
X15709D01*
Y11772D01*
X15669Y11732D01*
X13041Y6732D02*
X12963D01*
X13002D01*
Y6535D01*
X12963Y6496D01*
X12923D01*
X12884Y6535D01*
X13277Y6496D02*
X13120D01*
X13277Y6653D01*
Y6693D01*
X13238Y6732D01*
X13159D01*
X13120Y6693D01*
X17057Y10758D02*
X17097Y10679D01*
X17175Y10600D01*
X17254D01*
X17293Y10640D01*
Y10718D01*
X17254Y10758D01*
X17215D01*
X17175Y10718D01*
Y10600D01*
X17057Y10994D02*
X17097Y10915D01*
X17175Y10837D01*
X17254D01*
X17293Y10876D01*
Y10955D01*
X17254Y10994D01*
X17215D01*
X17175Y10955D01*
Y10837D01*
X17097Y11073D02*
X17057Y11112D01*
Y11191D01*
X17097Y11230D01*
X17254D01*
X17293Y11191D01*
Y11112D01*
X17254Y11073D01*
X17097D01*
X17293Y11309D02*
X17136D01*
Y11348D01*
X17175Y11388D01*
X17293D01*
X17175D01*
X17136Y11427D01*
X17175Y11466D01*
X17293D01*
Y11545D02*
X17136D01*
X17057Y11624D01*
X17136Y11702D01*
X17293D01*
X17175D01*
Y11545D01*
X17067Y10000D02*
Y9921D01*
X17106Y9882D01*
X17264D01*
X17303Y9921D01*
Y10000D01*
X17264Y10039D01*
X17106D01*
X17067Y10000D01*
X17146Y10118D02*
X17264D01*
X17303Y10157D01*
Y10275D01*
X17146D01*
X17106Y10394D02*
X17146D01*
Y10354D01*
Y10433D01*
Y10394D01*
X17264D01*
X17303Y10433D01*
X11398Y5108D02*
Y5187D01*
Y5148D01*
X11634D01*
Y5108D01*
Y5187D01*
Y5305D02*
X11476D01*
Y5423D01*
X11516Y5462D01*
X11634D01*
Y5935D02*
Y5777D01*
X11476Y5935D01*
X11437D01*
X11398Y5895D01*
Y5817D01*
X11437Y5777D01*
X11634Y6132D02*
X11398D01*
X11516Y6013D01*
Y6171D01*
X11398Y6250D02*
X11555D01*
X11634Y6328D01*
X11555Y6407D01*
X11398D01*
X23661Y8022D02*
X23622Y8061D01*
X23543D01*
X23504Y8022D01*
Y7864D01*
X23543Y7825D01*
X23622D01*
X23661Y7864D01*
X23740Y7825D02*
X23819D01*
X23779D01*
Y8061D01*
X23740Y8022D01*
X21860Y7077D02*
X21821Y7037D01*
Y6959D01*
X21860Y6919D01*
X22018D01*
X22057Y6959D01*
Y7037D01*
X22018Y7077D01*
X22057Y7313D02*
Y7155D01*
X21900Y7313D01*
X21860D01*
X21821Y7274D01*
Y7195D01*
X21860Y7155D01*
X21467Y8829D02*
X21427Y8789D01*
Y8711D01*
X21467Y8671D01*
X21624D01*
X21663Y8711D01*
Y8789D01*
X21624Y8829D01*
X21467Y8907D02*
X21427Y8947D01*
Y9025D01*
X21467Y9065D01*
X21506D01*
X21545Y9025D01*
Y8986D01*
Y9025D01*
X21585Y9065D01*
X21624D01*
X21663Y9025D01*
Y8947D01*
X21624Y8907D01*
X20443Y8484D02*
X20404Y8524D01*
X20325D01*
X20285Y8484D01*
Y8327D01*
X20325Y8287D01*
X20404D01*
X20443Y8327D01*
X20640Y8287D02*
Y8524D01*
X20522Y8405D01*
X20679D01*
X21024Y12283D02*
X20984Y12323D01*
X20905D01*
X20866Y12283D01*
Y12126D01*
X20905Y12087D01*
X20984D01*
X21024Y12126D01*
X21260Y12323D02*
X21102D01*
Y12205D01*
X21181Y12244D01*
X21220D01*
X21260Y12205D01*
Y12126D01*
X21220Y12087D01*
X21142D01*
X21102Y12126D01*
X19301Y12461D02*
Y12224D01*
X19419D01*
X19459Y12264D01*
Y12421D01*
X19419Y12461D01*
X19301D01*
X19537Y12224D02*
X19616D01*
X19577D01*
Y12461D01*
X19537Y12421D01*
X20276Y12431D02*
Y12195D01*
X20394D01*
X20433Y12234D01*
Y12392D01*
X20394Y12431D01*
X20276D01*
X20669Y12195D02*
X20512D01*
X20669Y12352D01*
Y12392D01*
X20630Y12431D01*
X20551D01*
X20512Y12392D01*
X19262Y8514D02*
X19104D01*
Y8396D01*
X19183D01*
X19104D01*
Y8278D01*
X19340D02*
X19419D01*
X19380D01*
Y8514D01*
X19340Y8474D01*
X23012Y6260D02*
Y6024D01*
X23169D01*
X23248D02*
X23327D01*
X23287D01*
Y6260D01*
X23248Y6220D01*
X20866Y10266D02*
Y10502D01*
X20984D01*
X21024Y10463D01*
Y10384D01*
X20984Y10344D01*
X20866D01*
X20945D02*
X21024Y10266D01*
X21260D02*
X21102D01*
X21260Y10423D01*
Y10463D01*
X21220Y10502D01*
X21142D01*
X21102Y10463D01*
X24350Y9203D02*
Y9439D01*
X24468D01*
X24508Y9400D01*
Y9321D01*
X24468Y9281D01*
X24350D01*
X24429D02*
X24508Y9203D01*
X24587D02*
X24665D01*
X24626D01*
Y9439D01*
X24587Y9400D01*
X20728Y9203D02*
Y9439D01*
X20846D01*
X20886Y9400D01*
Y9321D01*
X20846Y9281D01*
X20728D01*
X20807D02*
X20886Y9203D01*
X20964Y9400D02*
X21004Y9439D01*
X21083D01*
X21122Y9400D01*
Y9360D01*
X21083Y9321D01*
X21043D01*
X21083D01*
X21122Y9281D01*
Y9242D01*
X21083Y9203D01*
X21004D01*
X20964Y9242D01*
X22785Y8386D02*
Y8189D01*
X22825Y8150D01*
X22904D01*
X22943Y8189D01*
Y8386D01*
X23022Y8150D02*
X23100D01*
X23061D01*
Y8386D01*
X23022Y8346D01*
X22874Y11772D02*
X22795D01*
X22835D01*
Y11575D01*
X22795Y11535D01*
X22756D01*
X22717Y11575D01*
X22953Y11535D02*
X23031D01*
X22992D01*
Y11772D01*
X22953Y11732D01*
X20325Y6732D02*
X20246D01*
X20285D01*
Y6535D01*
X20246Y6496D01*
X20207D01*
X20167Y6535D01*
X20561Y6496D02*
X20403D01*
X20561Y6653D01*
Y6693D01*
X20522Y6732D01*
X20443D01*
X20403Y6693D01*
X24341Y10758D02*
X24380Y10679D01*
X24459Y10600D01*
X24537D01*
X24577Y10640D01*
Y10718D01*
X24537Y10758D01*
X24498D01*
X24459Y10718D01*
Y10600D01*
X24341Y10994D02*
X24380Y10915D01*
X24459Y10837D01*
X24537D01*
X24577Y10876D01*
Y10955D01*
X24537Y10994D01*
X24498D01*
X24459Y10955D01*
Y10837D01*
X24380Y11073D02*
X24341Y11112D01*
Y11191D01*
X24380Y11230D01*
X24537D01*
X24577Y11191D01*
Y11112D01*
X24537Y11073D01*
X24380D01*
X24577Y11309D02*
X24419D01*
Y11348D01*
X24459Y11388D01*
X24577D01*
X24459D01*
X24419Y11427D01*
X24459Y11466D01*
X24577D01*
Y11545D02*
X24419D01*
X24341Y11624D01*
X24419Y11702D01*
X24577D01*
X24459D01*
Y11545D01*
X24350Y10000D02*
Y9921D01*
X24390Y9882D01*
X24547D01*
X24587Y9921D01*
Y10000D01*
X24547Y10039D01*
X24390D01*
X24350Y10000D01*
X24429Y10118D02*
X24547D01*
X24587Y10157D01*
Y10275D01*
X24429D01*
X24390Y10394D02*
X24429D01*
Y10354D01*
Y10433D01*
Y10394D01*
X24547D01*
X24587Y10433D01*
X18681Y5108D02*
Y5187D01*
Y5148D01*
X18917D01*
Y5108D01*
Y5187D01*
Y5305D02*
X18760D01*
Y5423D01*
X18799Y5462D01*
X18917D01*
Y5935D02*
Y5777D01*
X18760Y5935D01*
X18721D01*
X18681Y5895D01*
Y5817D01*
X18721Y5777D01*
X18917Y6132D02*
X18681D01*
X18799Y6013D01*
Y6171D01*
X18681Y6250D02*
X18839D01*
X18917Y6328D01*
X18839Y6407D01*
X18681D01*
X30945Y8022D02*
X30905Y8061D01*
X30827D01*
X30787Y8022D01*
Y7864D01*
X30827Y7825D01*
X30905D01*
X30945Y7864D01*
X31024Y7825D02*
X31102D01*
X31063D01*
Y8061D01*
X31024Y8022D01*
X29144Y7077D02*
X29104Y7037D01*
Y6959D01*
X29144Y6919D01*
X29301D01*
X29341Y6959D01*
Y7037D01*
X29301Y7077D01*
X29341Y7313D02*
Y7155D01*
X29183Y7313D01*
X29144D01*
X29104Y7274D01*
Y7195D01*
X29144Y7155D01*
X28750Y8829D02*
X28711Y8789D01*
Y8711D01*
X28750Y8671D01*
X28907D01*
X28947Y8711D01*
Y8789D01*
X28907Y8829D01*
X28750Y8907D02*
X28711Y8947D01*
Y9025D01*
X28750Y9065D01*
X28789D01*
X28829Y9025D01*
Y8986D01*
Y9025D01*
X28868Y9065D01*
X28907D01*
X28947Y9025D01*
Y8947D01*
X28907Y8907D01*
X27726Y8484D02*
X27687Y8524D01*
X27608D01*
X27569Y8484D01*
Y8327D01*
X27608Y8287D01*
X27687D01*
X27726Y8327D01*
X27923Y8287D02*
Y8524D01*
X27805Y8405D01*
X27962D01*
X28307Y12283D02*
X28268Y12323D01*
X28189D01*
X28150Y12283D01*
Y12126D01*
X28189Y12087D01*
X28268D01*
X28307Y12126D01*
X28543Y12323D02*
X28386D01*
Y12205D01*
X28464Y12244D01*
X28504D01*
X28543Y12205D01*
Y12126D01*
X28504Y12087D01*
X28425D01*
X28386Y12126D01*
X26585Y12461D02*
Y12224D01*
X26703D01*
X26742Y12264D01*
Y12421D01*
X26703Y12461D01*
X26585D01*
X26821Y12224D02*
X26900D01*
X26860D01*
Y12461D01*
X26821Y12421D01*
X27559Y12431D02*
Y12195D01*
X27677D01*
X27716Y12234D01*
Y12392D01*
X27677Y12431D01*
X27559D01*
X27953Y12195D02*
X27795D01*
X27953Y12352D01*
Y12392D01*
X27913Y12431D01*
X27835D01*
X27795Y12392D01*
X26545Y8514D02*
X26388D01*
Y8396D01*
X26467D01*
X26388D01*
Y8278D01*
X26624D02*
X26703D01*
X26663D01*
Y8514D01*
X26624Y8474D01*
X30295Y6260D02*
Y6024D01*
X30453D01*
X30531D02*
X30610D01*
X30571D01*
Y6260D01*
X30531Y6220D01*
X28150Y10266D02*
Y10502D01*
X28268D01*
X28307Y10463D01*
Y10384D01*
X28268Y10344D01*
X28150D01*
X28228D02*
X28307Y10266D01*
X28543D02*
X28386D01*
X28543Y10423D01*
Y10463D01*
X28504Y10502D01*
X28425D01*
X28386Y10463D01*
X31634Y9203D02*
Y9439D01*
X31752D01*
X31791Y9400D01*
Y9321D01*
X31752Y9281D01*
X31634D01*
X31713D02*
X31791Y9203D01*
X31870D02*
X31949D01*
X31909D01*
Y9439D01*
X31870Y9400D01*
X28012Y9203D02*
Y9439D01*
X28130D01*
X28169Y9400D01*
Y9321D01*
X28130Y9281D01*
X28012D01*
X28091D02*
X28169Y9203D01*
X28248Y9400D02*
X28287Y9439D01*
X28366D01*
X28405Y9400D01*
Y9360D01*
X28366Y9321D01*
X28327D01*
X28366D01*
X28405Y9281D01*
Y9242D01*
X28366Y9203D01*
X28287D01*
X28248Y9242D01*
X30069Y8386D02*
Y8189D01*
X30108Y8150D01*
X30187D01*
X30226Y8189D01*
Y8386D01*
X30305Y8150D02*
X30384D01*
X30344D01*
Y8386D01*
X30305Y8346D01*
X30157Y11772D02*
X30079D01*
X30118D01*
Y11575D01*
X30079Y11535D01*
X30039D01*
X30000Y11575D01*
X30236Y11535D02*
X30315D01*
X30275D01*
Y11772D01*
X30236Y11732D01*
X27608Y6732D02*
X27529D01*
X27569D01*
Y6535D01*
X27529Y6496D01*
X27490D01*
X27451Y6535D01*
X27844Y6496D02*
X27687D01*
X27844Y6653D01*
Y6693D01*
X27805Y6732D01*
X27726D01*
X27687Y6693D01*
X31624Y10758D02*
X31663Y10679D01*
X31742Y10600D01*
X31821D01*
X31860Y10640D01*
Y10718D01*
X31821Y10758D01*
X31782D01*
X31742Y10718D01*
Y10600D01*
X31624Y10994D02*
X31663Y10915D01*
X31742Y10837D01*
X31821D01*
X31860Y10876D01*
Y10955D01*
X31821Y10994D01*
X31782D01*
X31742Y10955D01*
Y10837D01*
X31663Y11073D02*
X31624Y11112D01*
Y11191D01*
X31663Y11230D01*
X31821D01*
X31860Y11191D01*
Y11112D01*
X31821Y11073D01*
X31663D01*
X31860Y11309D02*
X31703D01*
Y11348D01*
X31742Y11388D01*
X31860D01*
X31742D01*
X31703Y11427D01*
X31742Y11466D01*
X31860D01*
Y11545D02*
X31703D01*
X31624Y11624D01*
X31703Y11702D01*
X31860D01*
X31742D01*
Y11545D01*
X31634Y10000D02*
Y9921D01*
X31673Y9882D01*
X31831D01*
X31870Y9921D01*
Y10000D01*
X31831Y10039D01*
X31673D01*
X31634Y10000D01*
X31713Y10118D02*
X31831D01*
X31870Y10157D01*
Y10275D01*
X31713D01*
X31673Y10394D02*
X31713D01*
Y10354D01*
Y10433D01*
Y10394D01*
X31831D01*
X31870Y10433D01*
X25965Y5108D02*
Y5187D01*
Y5148D01*
X26201D01*
Y5108D01*
Y5187D01*
Y5305D02*
X26043D01*
Y5423D01*
X26083Y5462D01*
X26201D01*
Y5935D02*
Y5777D01*
X26043Y5935D01*
X26004D01*
X25965Y5895D01*
Y5817D01*
X26004Y5777D01*
X26201Y6132D02*
X25965D01*
X26083Y6013D01*
Y6171D01*
X25965Y6250D02*
X26122D01*
X26201Y6328D01*
X26122Y6407D01*
X25965D01*
X38228Y8022D02*
X38189Y8061D01*
X38110D01*
X38071Y8022D01*
Y7864D01*
X38110Y7825D01*
X38189D01*
X38228Y7864D01*
X38307Y7825D02*
X38386D01*
X38346D01*
Y8061D01*
X38307Y8022D01*
X36427Y7077D02*
X36388Y7037D01*
Y6959D01*
X36427Y6919D01*
X36585D01*
X36624Y6959D01*
Y7037D01*
X36585Y7077D01*
X36624Y7313D02*
Y7155D01*
X36467Y7313D01*
X36427D01*
X36388Y7274D01*
Y7195D01*
X36427Y7155D01*
X36034Y8829D02*
X35994Y8789D01*
Y8711D01*
X36034Y8671D01*
X36191D01*
X36230Y8711D01*
Y8789D01*
X36191Y8829D01*
X36034Y8907D02*
X35994Y8947D01*
Y9025D01*
X36034Y9065D01*
X36073D01*
X36112Y9025D01*
Y8986D01*
Y9025D01*
X36152Y9065D01*
X36191D01*
X36230Y9025D01*
Y8947D01*
X36191Y8907D01*
X35010Y8484D02*
X34970Y8524D01*
X34892D01*
X34852Y8484D01*
Y8327D01*
X34892Y8287D01*
X34970D01*
X35010Y8327D01*
X35207Y8287D02*
Y8524D01*
X35089Y8405D01*
X35246D01*
X35591Y12283D02*
X35551Y12323D01*
X35472D01*
X35433Y12283D01*
Y12126D01*
X35472Y12087D01*
X35551D01*
X35591Y12126D01*
X35827Y12323D02*
X35669D01*
Y12205D01*
X35748Y12244D01*
X35787D01*
X35827Y12205D01*
Y12126D01*
X35787Y12087D01*
X35709D01*
X35669Y12126D01*
X33868Y12461D02*
Y12224D01*
X33986D01*
X34026Y12264D01*
Y12421D01*
X33986Y12461D01*
X33868D01*
X34104Y12224D02*
X34183D01*
X34144D01*
Y12461D01*
X34104Y12421D01*
X34843Y12431D02*
Y12195D01*
X34961D01*
X35000Y12234D01*
Y12392D01*
X34961Y12431D01*
X34843D01*
X35236Y12195D02*
X35079D01*
X35236Y12352D01*
Y12392D01*
X35197Y12431D01*
X35118D01*
X35079Y12392D01*
X33829Y8514D02*
X33671D01*
Y8396D01*
X33750D01*
X33671D01*
Y8278D01*
X33907D02*
X33986D01*
X33947D01*
Y8514D01*
X33907Y8474D01*
X37579Y6260D02*
Y6024D01*
X37736D01*
X37815D02*
X37894D01*
X37854D01*
Y6260D01*
X37815Y6220D01*
X35433Y10266D02*
Y10502D01*
X35551D01*
X35591Y10463D01*
Y10384D01*
X35551Y10344D01*
X35433D01*
X35512D02*
X35591Y10266D01*
X35827D02*
X35669D01*
X35827Y10423D01*
Y10463D01*
X35787Y10502D01*
X35709D01*
X35669Y10463D01*
X38917Y9203D02*
Y9439D01*
X39035D01*
X39075Y9400D01*
Y9321D01*
X39035Y9281D01*
X38917D01*
X38996D02*
X39075Y9203D01*
X39153D02*
X39232D01*
X39193D01*
Y9439D01*
X39153Y9400D01*
X35295Y9203D02*
Y9439D01*
X35413D01*
X35453Y9400D01*
Y9321D01*
X35413Y9281D01*
X35295D01*
X35374D02*
X35453Y9203D01*
X35531Y9400D02*
X35571Y9439D01*
X35649D01*
X35689Y9400D01*
Y9360D01*
X35649Y9321D01*
X35610D01*
X35649D01*
X35689Y9281D01*
Y9242D01*
X35649Y9203D01*
X35571D01*
X35531Y9242D01*
X37352Y8386D02*
Y8189D01*
X37392Y8150D01*
X37470D01*
X37510Y8189D01*
Y8386D01*
X37589Y8150D02*
X37667D01*
X37628D01*
Y8386D01*
X37589Y8346D01*
X37441Y11772D02*
X37362D01*
X37402D01*
Y11575D01*
X37362Y11535D01*
X37323D01*
X37283Y11575D01*
X37520Y11535D02*
X37598D01*
X37559D01*
Y11772D01*
X37520Y11732D01*
X34892Y6732D02*
X34813D01*
X34852D01*
Y6535D01*
X34813Y6496D01*
X34774D01*
X34734Y6535D01*
X35128Y6496D02*
X34970D01*
X35128Y6653D01*
Y6693D01*
X35088Y6732D01*
X35010D01*
X34970Y6693D01*
X38908Y10758D02*
X38947Y10679D01*
X39026Y10600D01*
X39104D01*
X39144Y10640D01*
Y10718D01*
X39104Y10758D01*
X39065D01*
X39026Y10718D01*
Y10600D01*
X38908Y10994D02*
X38947Y10915D01*
X39026Y10837D01*
X39104D01*
X39144Y10876D01*
Y10955D01*
X39104Y10994D01*
X39065D01*
X39026Y10955D01*
Y10837D01*
X38947Y11073D02*
X38908Y11112D01*
Y11191D01*
X38947Y11230D01*
X39104D01*
X39144Y11191D01*
Y11112D01*
X39104Y11073D01*
X38947D01*
X39144Y11309D02*
X38986D01*
Y11348D01*
X39026Y11388D01*
X39144D01*
X39026D01*
X38986Y11427D01*
X39026Y11466D01*
X39144D01*
Y11545D02*
X38986D01*
X38908Y11624D01*
X38986Y11702D01*
X39144D01*
X39026D01*
Y11545D01*
X38917Y10000D02*
Y9921D01*
X38957Y9882D01*
X39114D01*
X39154Y9921D01*
Y10000D01*
X39114Y10039D01*
X38957D01*
X38917Y10000D01*
X38996Y10118D02*
X39114D01*
X39154Y10157D01*
Y10275D01*
X38996D01*
X38957Y10394D02*
X38996D01*
Y10354D01*
Y10433D01*
Y10394D01*
X39114D01*
X39154Y10433D01*
X33248Y5108D02*
Y5187D01*
Y5148D01*
X33484D01*
Y5108D01*
Y5187D01*
Y5305D02*
X33327D01*
Y5423D01*
X33366Y5462D01*
X33484D01*
Y5935D02*
Y5777D01*
X33327Y5935D01*
X33287D01*
X33248Y5895D01*
Y5817D01*
X33287Y5777D01*
X33484Y6132D02*
X33248D01*
X33366Y6013D01*
Y6171D01*
X33248Y6250D02*
X33406D01*
X33484Y6328D01*
X33406Y6407D01*
X33248D01*
X9094Y17667D02*
X9055Y17707D01*
X8976D01*
X8937Y17667D01*
Y17510D01*
X8976Y17470D01*
X9055D01*
X9094Y17510D01*
X9173Y17470D02*
X9252D01*
X9213D01*
Y17707D01*
X9173Y17667D01*
X7293Y16722D02*
X7254Y16683D01*
Y16604D01*
X7293Y16565D01*
X7451D01*
X7490Y16604D01*
Y16683D01*
X7451Y16722D01*
X7490Y16959D02*
Y16801D01*
X7333Y16959D01*
X7293D01*
X7254Y16919D01*
Y16840D01*
X7293Y16801D01*
X6900Y18474D02*
X6860Y18435D01*
Y18356D01*
X6900Y18317D01*
X7057D01*
X7096Y18356D01*
Y18435D01*
X7057Y18474D01*
X6900Y18553D02*
X6860Y18592D01*
Y18671D01*
X6900Y18711D01*
X6939D01*
X6978Y18671D01*
Y18632D01*
Y18671D01*
X7018Y18711D01*
X7057D01*
X7096Y18671D01*
Y18592D01*
X7057Y18553D01*
X5876Y18130D02*
X5837Y18169D01*
X5758D01*
X5719Y18130D01*
Y17972D01*
X5758Y17933D01*
X5837D01*
X5876Y17972D01*
X6073Y17933D02*
Y18169D01*
X5955Y18051D01*
X6112D01*
X6457Y21929D02*
X6417Y21968D01*
X6339D01*
X6299Y21929D01*
Y21772D01*
X6339Y21732D01*
X6417D01*
X6457Y21772D01*
X6693Y21968D02*
X6535D01*
Y21850D01*
X6614Y21890D01*
X6653D01*
X6693Y21850D01*
Y21772D01*
X6653Y21732D01*
X6575D01*
X6535Y21772D01*
X4734Y22106D02*
Y21870D01*
X4852D01*
X4892Y21909D01*
Y22067D01*
X4852Y22106D01*
X4734D01*
X4970Y21870D02*
X5049D01*
X5010D01*
Y22106D01*
X4970Y22067D01*
X5709Y22077D02*
Y21841D01*
X5827D01*
X5866Y21880D01*
Y22037D01*
X5827Y22077D01*
X5709D01*
X6102Y21841D02*
X5945D01*
X6102Y21998D01*
Y22037D01*
X6063Y22077D01*
X5984D01*
X5945Y22037D01*
X4695Y18159D02*
X4537D01*
Y18041D01*
X4616D01*
X4537D01*
Y17923D01*
X4774D02*
X4852D01*
X4813D01*
Y18159D01*
X4774Y18120D01*
X8445Y15905D02*
Y15669D01*
X8602D01*
X8681D02*
X8760D01*
X8720D01*
Y15905D01*
X8681Y15866D01*
X6299Y19911D02*
Y20148D01*
X6417D01*
X6457Y20108D01*
Y20029D01*
X6417Y19990D01*
X6299D01*
X6378D02*
X6457Y19911D01*
X6693D02*
X6535D01*
X6693Y20069D01*
Y20108D01*
X6653Y20148D01*
X6575D01*
X6535Y20108D01*
X9783Y18848D02*
Y19085D01*
X9902D01*
X9941Y19045D01*
Y18966D01*
X9902Y18927D01*
X9783D01*
X9862D02*
X9941Y18848D01*
X10020D02*
X10098D01*
X10059D01*
Y19085D01*
X10020Y19045D01*
X6161Y18848D02*
Y19085D01*
X6279D01*
X6319Y19045D01*
Y18966D01*
X6279Y18927D01*
X6161D01*
X6240D02*
X6319Y18848D01*
X6398Y19045D02*
X6437Y19085D01*
X6516D01*
X6555Y19045D01*
Y19006D01*
X6516Y18966D01*
X6476D01*
X6516D01*
X6555Y18927D01*
Y18888D01*
X6516Y18848D01*
X6437D01*
X6398Y18888D01*
X8219Y18031D02*
Y17835D01*
X8258Y17795D01*
X8337D01*
X8376Y17835D01*
Y18031D01*
X8455Y17795D02*
X8533D01*
X8494D01*
Y18031D01*
X8455Y17992D01*
X8307Y21417D02*
X8228D01*
X8268D01*
Y21220D01*
X8228Y21181D01*
X8189D01*
X8150Y21220D01*
X8386Y21181D02*
X8464D01*
X8425D01*
Y21417D01*
X8386Y21378D01*
X5758Y16378D02*
X5679D01*
X5718D01*
Y16181D01*
X5679Y16142D01*
X5640D01*
X5600Y16181D01*
X5994Y16142D02*
X5837D01*
X5994Y16299D01*
Y16339D01*
X5955Y16378D01*
X5876D01*
X5837Y16339D01*
X9774Y20403D02*
X9813Y20325D01*
X9892Y20246D01*
X9970D01*
X10010Y20285D01*
Y20364D01*
X9970Y20403D01*
X9931D01*
X9892Y20364D01*
Y20246D01*
X9774Y20640D02*
X9813Y20561D01*
X9892Y20482D01*
X9970D01*
X10010Y20522D01*
Y20600D01*
X9970Y20640D01*
X9931D01*
X9892Y20600D01*
Y20482D01*
X9813Y20718D02*
X9774Y20758D01*
Y20836D01*
X9813Y20876D01*
X9970D01*
X10010Y20836D01*
Y20758D01*
X9970Y20718D01*
X9813D01*
X10010Y20954D02*
X9852D01*
Y20994D01*
X9892Y21033D01*
X10010D01*
X9892D01*
X9852Y21073D01*
X9892Y21112D01*
X10010D01*
Y21191D02*
X9852D01*
X9774Y21269D01*
X9852Y21348D01*
X10010D01*
X9892D01*
Y21191D01*
X9784Y19646D02*
Y19567D01*
X9823Y19528D01*
X9980D01*
X10020Y19567D01*
Y19646D01*
X9980Y19685D01*
X9823D01*
X9784Y19646D01*
X9862Y19764D02*
X9980D01*
X10020Y19803D01*
Y19921D01*
X9862D01*
X9823Y20039D02*
X9862D01*
Y20000D01*
Y20079D01*
Y20039D01*
X9980D01*
X10020Y20079D01*
X4114Y14754D02*
Y14833D01*
Y14793D01*
X4350D01*
Y14754D01*
Y14833D01*
Y14951D02*
X4193D01*
Y15069D01*
X4232Y15108D01*
X4350D01*
Y15580D02*
Y15423D01*
X4193Y15580D01*
X4154D01*
X4114Y15541D01*
Y15462D01*
X4154Y15423D01*
X4350Y15777D02*
X4114D01*
X4232Y15659D01*
Y15817D01*
X4114Y15895D02*
X4272D01*
X4350Y15974D01*
X4272Y16053D01*
X4114D01*
X16378Y17667D02*
X16339Y17707D01*
X16260D01*
X16220Y17667D01*
Y17510D01*
X16260Y17470D01*
X16339D01*
X16378Y17510D01*
X16457Y17470D02*
X16535D01*
X16496D01*
Y17707D01*
X16457Y17667D01*
X14577Y16722D02*
X14537Y16683D01*
Y16604D01*
X14577Y16565D01*
X14734D01*
X14774Y16604D01*
Y16683D01*
X14734Y16722D01*
X14774Y16959D02*
Y16801D01*
X14616Y16959D01*
X14577D01*
X14537Y16919D01*
Y16840D01*
X14577Y16801D01*
X14183Y18474D02*
X14144Y18435D01*
Y18356D01*
X14183Y18317D01*
X14341D01*
X14380Y18356D01*
Y18435D01*
X14341Y18474D01*
X14183Y18553D02*
X14144Y18592D01*
Y18671D01*
X14183Y18711D01*
X14222D01*
X14262Y18671D01*
Y18632D01*
Y18671D01*
X14301Y18711D01*
X14341D01*
X14380Y18671D01*
Y18592D01*
X14341Y18553D01*
X13159Y18130D02*
X13120Y18169D01*
X13041D01*
X13002Y18130D01*
Y17972D01*
X13041Y17933D01*
X13120D01*
X13159Y17972D01*
X13356Y17933D02*
Y18169D01*
X13238Y18051D01*
X13396D01*
X13740Y21929D02*
X13701Y21968D01*
X13622D01*
X13583Y21929D01*
Y21772D01*
X13622Y21732D01*
X13701D01*
X13740Y21772D01*
X13976Y21968D02*
X13819D01*
Y21850D01*
X13898Y21890D01*
X13937D01*
X13976Y21850D01*
Y21772D01*
X13937Y21732D01*
X13858D01*
X13819Y21772D01*
X12018Y22106D02*
Y21870D01*
X12136D01*
X12175Y21909D01*
Y22067D01*
X12136Y22106D01*
X12018D01*
X12254Y21870D02*
X12333D01*
X12293D01*
Y22106D01*
X12254Y22067D01*
X12992Y22077D02*
Y21841D01*
X13110D01*
X13150Y21880D01*
Y22037D01*
X13110Y22077D01*
X12992D01*
X13386Y21841D02*
X13228D01*
X13386Y21998D01*
Y22037D01*
X13346Y22077D01*
X13268D01*
X13228Y22037D01*
X11978Y18159D02*
X11821D01*
Y18041D01*
X11900D01*
X11821D01*
Y17923D01*
X12057D02*
X12136D01*
X12096D01*
Y18159D01*
X12057Y18120D01*
X15728Y15905D02*
Y15669D01*
X15886D01*
X15964D02*
X16043D01*
X16004D01*
Y15905D01*
X15964Y15866D01*
X13583Y19911D02*
Y20148D01*
X13701D01*
X13740Y20108D01*
Y20029D01*
X13701Y19990D01*
X13583D01*
X13661D02*
X13740Y19911D01*
X13976D02*
X13819D01*
X13976Y20069D01*
Y20108D01*
X13937Y20148D01*
X13858D01*
X13819Y20108D01*
X17067Y18848D02*
Y19085D01*
X17185D01*
X17224Y19045D01*
Y18966D01*
X17185Y18927D01*
X17067D01*
X17146D02*
X17224Y18848D01*
X17303D02*
X17382D01*
X17342D01*
Y19085D01*
X17303Y19045D01*
X13445Y18848D02*
Y19085D01*
X13563D01*
X13602Y19045D01*
Y18966D01*
X13563Y18927D01*
X13445D01*
X13524D02*
X13602Y18848D01*
X13681Y19045D02*
X13720Y19085D01*
X13799D01*
X13838Y19045D01*
Y19006D01*
X13799Y18966D01*
X13760D01*
X13799D01*
X13838Y18927D01*
Y18888D01*
X13799Y18848D01*
X13720D01*
X13681Y18888D01*
X15502Y18031D02*
Y17835D01*
X15541Y17795D01*
X15620D01*
X15659Y17835D01*
Y18031D01*
X15738Y17795D02*
X15817D01*
X15777D01*
Y18031D01*
X15738Y17992D01*
X15590Y21417D02*
X15512D01*
X15551D01*
Y21220D01*
X15512Y21181D01*
X15472D01*
X15433Y21220D01*
X15669Y21181D02*
X15748D01*
X15709D01*
Y21417D01*
X15669Y21378D01*
X13041Y16378D02*
X12963D01*
X13002D01*
Y16181D01*
X12963Y16142D01*
X12923D01*
X12884Y16181D01*
X13277Y16142D02*
X13120D01*
X13277Y16299D01*
Y16339D01*
X13238Y16378D01*
X13159D01*
X13120Y16339D01*
X17057Y20403D02*
X17097Y20325D01*
X17175Y20246D01*
X17254D01*
X17293Y20285D01*
Y20364D01*
X17254Y20403D01*
X17215D01*
X17175Y20364D01*
Y20246D01*
X17057Y20640D02*
X17097Y20561D01*
X17175Y20482D01*
X17254D01*
X17293Y20522D01*
Y20600D01*
X17254Y20640D01*
X17215D01*
X17175Y20600D01*
Y20482D01*
X17097Y20718D02*
X17057Y20758D01*
Y20836D01*
X17097Y20876D01*
X17254D01*
X17293Y20836D01*
Y20758D01*
X17254Y20718D01*
X17097D01*
X17293Y20954D02*
X17136D01*
Y20994D01*
X17175Y21033D01*
X17293D01*
X17175D01*
X17136Y21073D01*
X17175Y21112D01*
X17293D01*
Y21191D02*
X17136D01*
X17057Y21269D01*
X17136Y21348D01*
X17293D01*
X17175D01*
Y21191D01*
X17067Y19646D02*
Y19567D01*
X17106Y19528D01*
X17264D01*
X17303Y19567D01*
Y19646D01*
X17264Y19685D01*
X17106D01*
X17067Y19646D01*
X17146Y19764D02*
X17264D01*
X17303Y19803D01*
Y19921D01*
X17146D01*
X17106Y20039D02*
X17146D01*
Y20000D01*
Y20079D01*
Y20039D01*
X17264D01*
X17303Y20079D01*
X11398Y14754D02*
Y14833D01*
Y14793D01*
X11634D01*
Y14754D01*
Y14833D01*
Y14951D02*
X11476D01*
Y15069D01*
X11516Y15108D01*
X11634D01*
Y15580D02*
Y15423D01*
X11476Y15580D01*
X11437D01*
X11398Y15541D01*
Y15462D01*
X11437Y15423D01*
X11634Y15777D02*
X11398D01*
X11516Y15659D01*
Y15817D01*
X11398Y15895D02*
X11555D01*
X11634Y15974D01*
X11555Y16053D01*
X11398D01*
X23661Y17667D02*
X23622Y17707D01*
X23543D01*
X23504Y17667D01*
Y17510D01*
X23543Y17470D01*
X23622D01*
X23661Y17510D01*
X23740Y17470D02*
X23819D01*
X23779D01*
Y17707D01*
X23740Y17667D01*
X21860Y16722D02*
X21821Y16683D01*
Y16604D01*
X21860Y16565D01*
X22018D01*
X22057Y16604D01*
Y16683D01*
X22018Y16722D01*
X22057Y16959D02*
Y16801D01*
X21900Y16959D01*
X21860D01*
X21821Y16919D01*
Y16840D01*
X21860Y16801D01*
X21467Y18474D02*
X21427Y18435D01*
Y18356D01*
X21467Y18317D01*
X21624D01*
X21663Y18356D01*
Y18435D01*
X21624Y18474D01*
X21467Y18553D02*
X21427Y18592D01*
Y18671D01*
X21467Y18711D01*
X21506D01*
X21545Y18671D01*
Y18632D01*
Y18671D01*
X21585Y18711D01*
X21624D01*
X21663Y18671D01*
Y18592D01*
X21624Y18553D01*
X20443Y18130D02*
X20404Y18169D01*
X20325D01*
X20285Y18130D01*
Y17972D01*
X20325Y17933D01*
X20404D01*
X20443Y17972D01*
X20640Y17933D02*
Y18169D01*
X20522Y18051D01*
X20679D01*
X21024Y21929D02*
X20984Y21968D01*
X20905D01*
X20866Y21929D01*
Y21772D01*
X20905Y21732D01*
X20984D01*
X21024Y21772D01*
X21260Y21968D02*
X21102D01*
Y21850D01*
X21181Y21890D01*
X21220D01*
X21260Y21850D01*
Y21772D01*
X21220Y21732D01*
X21142D01*
X21102Y21772D01*
X19301Y22106D02*
Y21870D01*
X19419D01*
X19459Y21909D01*
Y22067D01*
X19419Y22106D01*
X19301D01*
X19537Y21870D02*
X19616D01*
X19577D01*
Y22106D01*
X19537Y22067D01*
X20276Y22077D02*
Y21841D01*
X20394D01*
X20433Y21880D01*
Y22037D01*
X20394Y22077D01*
X20276D01*
X20669Y21841D02*
X20512D01*
X20669Y21998D01*
Y22037D01*
X20630Y22077D01*
X20551D01*
X20512Y22037D01*
X19262Y18159D02*
X19104D01*
Y18041D01*
X19183D01*
X19104D01*
Y17923D01*
X19340D02*
X19419D01*
X19380D01*
Y18159D01*
X19340Y18120D01*
X23012Y15905D02*
Y15669D01*
X23169D01*
X23248D02*
X23327D01*
X23287D01*
Y15905D01*
X23248Y15866D01*
X20866Y19911D02*
Y20148D01*
X20984D01*
X21024Y20108D01*
Y20029D01*
X20984Y19990D01*
X20866D01*
X20945D02*
X21024Y19911D01*
X21260D02*
X21102D01*
X21260Y20069D01*
Y20108D01*
X21220Y20148D01*
X21142D01*
X21102Y20108D01*
X24350Y18848D02*
Y19085D01*
X24468D01*
X24508Y19045D01*
Y18966D01*
X24468Y18927D01*
X24350D01*
X24429D02*
X24508Y18848D01*
X24587D02*
X24665D01*
X24626D01*
Y19085D01*
X24587Y19045D01*
X20728Y18848D02*
Y19085D01*
X20846D01*
X20886Y19045D01*
Y18966D01*
X20846Y18927D01*
X20728D01*
X20807D02*
X20886Y18848D01*
X20964Y19045D02*
X21004Y19085D01*
X21083D01*
X21122Y19045D01*
Y19006D01*
X21083Y18966D01*
X21043D01*
X21083D01*
X21122Y18927D01*
Y18888D01*
X21083Y18848D01*
X21004D01*
X20964Y18888D01*
X22785Y18031D02*
Y17835D01*
X22825Y17795D01*
X22904D01*
X22943Y17835D01*
Y18031D01*
X23022Y17795D02*
X23100D01*
X23061D01*
Y18031D01*
X23022Y17992D01*
X22874Y21417D02*
X22795D01*
X22835D01*
Y21220D01*
X22795Y21181D01*
X22756D01*
X22717Y21220D01*
X22953Y21181D02*
X23031D01*
X22992D01*
Y21417D01*
X22953Y21378D01*
X20325Y16378D02*
X20246D01*
X20285D01*
Y16181D01*
X20246Y16142D01*
X20207D01*
X20167Y16181D01*
X20561Y16142D02*
X20403D01*
X20561Y16299D01*
Y16339D01*
X20522Y16378D01*
X20443D01*
X20403Y16339D01*
X24341Y20403D02*
X24380Y20325D01*
X24459Y20246D01*
X24537D01*
X24577Y20285D01*
Y20364D01*
X24537Y20403D01*
X24498D01*
X24459Y20364D01*
Y20246D01*
X24341Y20640D02*
X24380Y20561D01*
X24459Y20482D01*
X24537D01*
X24577Y20522D01*
Y20600D01*
X24537Y20640D01*
X24498D01*
X24459Y20600D01*
Y20482D01*
X24380Y20718D02*
X24341Y20758D01*
Y20836D01*
X24380Y20876D01*
X24537D01*
X24577Y20836D01*
Y20758D01*
X24537Y20718D01*
X24380D01*
X24577Y20954D02*
X24419D01*
Y20994D01*
X24459Y21033D01*
X24577D01*
X24459D01*
X24419Y21073D01*
X24459Y21112D01*
X24577D01*
Y21191D02*
X24419D01*
X24341Y21269D01*
X24419Y21348D01*
X24577D01*
X24459D01*
Y21191D01*
X24350Y19646D02*
Y19567D01*
X24390Y19528D01*
X24547D01*
X24587Y19567D01*
Y19646D01*
X24547Y19685D01*
X24390D01*
X24350Y19646D01*
X24429Y19764D02*
X24547D01*
X24587Y19803D01*
Y19921D01*
X24429D01*
X24390Y20039D02*
X24429D01*
Y20000D01*
Y20079D01*
Y20039D01*
X24547D01*
X24587Y20079D01*
X18681Y14754D02*
Y14833D01*
Y14793D01*
X18917D01*
Y14754D01*
Y14833D01*
Y14951D02*
X18760D01*
Y15069D01*
X18799Y15108D01*
X18917D01*
Y15580D02*
Y15423D01*
X18760Y15580D01*
X18721D01*
X18681Y15541D01*
Y15462D01*
X18721Y15423D01*
X18917Y15777D02*
X18681D01*
X18799Y15659D01*
Y15817D01*
X18681Y15895D02*
X18839D01*
X18917Y15974D01*
X18839Y16053D01*
X18681D01*
X30945Y17667D02*
X30905Y17707D01*
X30827D01*
X30787Y17667D01*
Y17510D01*
X30827Y17470D01*
X30905D01*
X30945Y17510D01*
X31024Y17470D02*
X31102D01*
X31063D01*
Y17707D01*
X31024Y17667D01*
X29144Y16722D02*
X29104Y16683D01*
Y16604D01*
X29144Y16565D01*
X29301D01*
X29341Y16604D01*
Y16683D01*
X29301Y16722D01*
X29341Y16959D02*
Y16801D01*
X29183Y16959D01*
X29144D01*
X29104Y16919D01*
Y16840D01*
X29144Y16801D01*
X28750Y18474D02*
X28711Y18435D01*
Y18356D01*
X28750Y18317D01*
X28907D01*
X28947Y18356D01*
Y18435D01*
X28907Y18474D01*
X28750Y18553D02*
X28711Y18592D01*
Y18671D01*
X28750Y18711D01*
X28789D01*
X28829Y18671D01*
Y18632D01*
Y18671D01*
X28868Y18711D01*
X28907D01*
X28947Y18671D01*
Y18592D01*
X28907Y18553D01*
X27726Y18130D02*
X27687Y18169D01*
X27608D01*
X27569Y18130D01*
Y17972D01*
X27608Y17933D01*
X27687D01*
X27726Y17972D01*
X27923Y17933D02*
Y18169D01*
X27805Y18051D01*
X27962D01*
X28307Y21929D02*
X28268Y21968D01*
X28189D01*
X28150Y21929D01*
Y21772D01*
X28189Y21732D01*
X28268D01*
X28307Y21772D01*
X28543Y21968D02*
X28386D01*
Y21850D01*
X28464Y21890D01*
X28504D01*
X28543Y21850D01*
Y21772D01*
X28504Y21732D01*
X28425D01*
X28386Y21772D01*
X26585Y22106D02*
Y21870D01*
X26703D01*
X26742Y21909D01*
Y22067D01*
X26703Y22106D01*
X26585D01*
X26821Y21870D02*
X26900D01*
X26860D01*
Y22106D01*
X26821Y22067D01*
X27559Y22077D02*
Y21841D01*
X27677D01*
X27716Y21880D01*
Y22037D01*
X27677Y22077D01*
X27559D01*
X27953Y21841D02*
X27795D01*
X27953Y21998D01*
Y22037D01*
X27913Y22077D01*
X27835D01*
X27795Y22037D01*
X26545Y18159D02*
X26388D01*
Y18041D01*
X26467D01*
X26388D01*
Y17923D01*
X26624D02*
X26703D01*
X26663D01*
Y18159D01*
X26624Y18120D01*
X30295Y15905D02*
Y15669D01*
X30453D01*
X30531D02*
X30610D01*
X30571D01*
Y15905D01*
X30531Y15866D01*
X28150Y19911D02*
Y20148D01*
X28268D01*
X28307Y20108D01*
Y20029D01*
X28268Y19990D01*
X28150D01*
X28228D02*
X28307Y19911D01*
X28543D02*
X28386D01*
X28543Y20069D01*
Y20108D01*
X28504Y20148D01*
X28425D01*
X28386Y20108D01*
X31634Y18848D02*
Y19085D01*
X31752D01*
X31791Y19045D01*
Y18966D01*
X31752Y18927D01*
X31634D01*
X31713D02*
X31791Y18848D01*
X31870D02*
X31949D01*
X31909D01*
Y19085D01*
X31870Y19045D01*
X28012Y18848D02*
Y19085D01*
X28130D01*
X28169Y19045D01*
Y18966D01*
X28130Y18927D01*
X28012D01*
X28091D02*
X28169Y18848D01*
X28248Y19045D02*
X28287Y19085D01*
X28366D01*
X28405Y19045D01*
Y19006D01*
X28366Y18966D01*
X28327D01*
X28366D01*
X28405Y18927D01*
Y18888D01*
X28366Y18848D01*
X28287D01*
X28248Y18888D01*
X30069Y18031D02*
Y17835D01*
X30108Y17795D01*
X30187D01*
X30226Y17835D01*
Y18031D01*
X30305Y17795D02*
X30384D01*
X30344D01*
Y18031D01*
X30305Y17992D01*
X30157Y21417D02*
X30079D01*
X30118D01*
Y21220D01*
X30079Y21181D01*
X30039D01*
X30000Y21220D01*
X30236Y21181D02*
X30315D01*
X30275D01*
Y21417D01*
X30236Y21378D01*
X27608Y16378D02*
X27529D01*
X27569D01*
Y16181D01*
X27529Y16142D01*
X27490D01*
X27451Y16181D01*
X27844Y16142D02*
X27687D01*
X27844Y16299D01*
Y16339D01*
X27805Y16378D01*
X27726D01*
X27687Y16339D01*
X31624Y20403D02*
X31663Y20325D01*
X31742Y20246D01*
X31821D01*
X31860Y20285D01*
Y20364D01*
X31821Y20403D01*
X31782D01*
X31742Y20364D01*
Y20246D01*
X31624Y20640D02*
X31663Y20561D01*
X31742Y20482D01*
X31821D01*
X31860Y20522D01*
Y20600D01*
X31821Y20640D01*
X31782D01*
X31742Y20600D01*
Y20482D01*
X31663Y20718D02*
X31624Y20758D01*
Y20836D01*
X31663Y20876D01*
X31821D01*
X31860Y20836D01*
Y20758D01*
X31821Y20718D01*
X31663D01*
X31860Y20954D02*
X31703D01*
Y20994D01*
X31742Y21033D01*
X31860D01*
X31742D01*
X31703Y21073D01*
X31742Y21112D01*
X31860D01*
Y21191D02*
X31703D01*
X31624Y21269D01*
X31703Y21348D01*
X31860D01*
X31742D01*
Y21191D01*
X31634Y19646D02*
Y19567D01*
X31673Y19528D01*
X31831D01*
X31870Y19567D01*
Y19646D01*
X31831Y19685D01*
X31673D01*
X31634Y19646D01*
X31713Y19764D02*
X31831D01*
X31870Y19803D01*
Y19921D01*
X31713D01*
X31673Y20039D02*
X31713D01*
Y20000D01*
Y20079D01*
Y20039D01*
X31831D01*
X31870Y20079D01*
X25965Y14754D02*
Y14833D01*
Y14793D01*
X26201D01*
Y14754D01*
Y14833D01*
Y14951D02*
X26043D01*
Y15069D01*
X26083Y15108D01*
X26201D01*
Y15580D02*
Y15423D01*
X26043Y15580D01*
X26004D01*
X25965Y15541D01*
Y15462D01*
X26004Y15423D01*
X26201Y15777D02*
X25965D01*
X26083Y15659D01*
Y15817D01*
X25965Y15895D02*
X26122D01*
X26201Y15974D01*
X26122Y16053D01*
X25965D01*
X38228Y17667D02*
X38189Y17707D01*
X38110D01*
X38071Y17667D01*
Y17510D01*
X38110Y17470D01*
X38189D01*
X38228Y17510D01*
X38307Y17470D02*
X38386D01*
X38346D01*
Y17707D01*
X38307Y17667D01*
X36427Y16722D02*
X36388Y16683D01*
Y16604D01*
X36427Y16565D01*
X36585D01*
X36624Y16604D01*
Y16683D01*
X36585Y16722D01*
X36624Y16959D02*
Y16801D01*
X36467Y16959D01*
X36427D01*
X36388Y16919D01*
Y16840D01*
X36427Y16801D01*
X36034Y18474D02*
X35994Y18435D01*
Y18356D01*
X36034Y18317D01*
X36191D01*
X36230Y18356D01*
Y18435D01*
X36191Y18474D01*
X36034Y18553D02*
X35994Y18592D01*
Y18671D01*
X36034Y18711D01*
X36073D01*
X36112Y18671D01*
Y18632D01*
Y18671D01*
X36152Y18711D01*
X36191D01*
X36230Y18671D01*
Y18592D01*
X36191Y18553D01*
X35010Y18130D02*
X34970Y18169D01*
X34892D01*
X34852Y18130D01*
Y17972D01*
X34892Y17933D01*
X34970D01*
X35010Y17972D01*
X35207Y17933D02*
Y18169D01*
X35089Y18051D01*
X35246D01*
X35591Y21929D02*
X35551Y21968D01*
X35472D01*
X35433Y21929D01*
Y21772D01*
X35472Y21732D01*
X35551D01*
X35591Y21772D01*
X35827Y21968D02*
X35669D01*
Y21850D01*
X35748Y21890D01*
X35787D01*
X35827Y21850D01*
Y21772D01*
X35787Y21732D01*
X35709D01*
X35669Y21772D01*
X33868Y22106D02*
Y21870D01*
X33986D01*
X34026Y21909D01*
Y22067D01*
X33986Y22106D01*
X33868D01*
X34104Y21870D02*
X34183D01*
X34144D01*
Y22106D01*
X34104Y22067D01*
X34843Y22077D02*
Y21841D01*
X34961D01*
X35000Y21880D01*
Y22037D01*
X34961Y22077D01*
X34843D01*
X35236Y21841D02*
X35079D01*
X35236Y21998D01*
Y22037D01*
X35197Y22077D01*
X35118D01*
X35079Y22037D01*
X33829Y18159D02*
X33671D01*
Y18041D01*
X33750D01*
X33671D01*
Y17923D01*
X33907D02*
X33986D01*
X33947D01*
Y18159D01*
X33907Y18120D01*
X37579Y15905D02*
Y15669D01*
X37736D01*
X37815D02*
X37894D01*
X37854D01*
Y15905D01*
X37815Y15866D01*
X35433Y19911D02*
Y20148D01*
X35551D01*
X35591Y20108D01*
Y20029D01*
X35551Y19990D01*
X35433D01*
X35512D02*
X35591Y19911D01*
X35827D02*
X35669D01*
X35827Y20069D01*
Y20108D01*
X35787Y20148D01*
X35709D01*
X35669Y20108D01*
X38917Y18848D02*
Y19085D01*
X39035D01*
X39075Y19045D01*
Y18966D01*
X39035Y18927D01*
X38917D01*
X38996D02*
X39075Y18848D01*
X39153D02*
X39232D01*
X39193D01*
Y19085D01*
X39153Y19045D01*
X35295Y18848D02*
Y19085D01*
X35413D01*
X35453Y19045D01*
Y18966D01*
X35413Y18927D01*
X35295D01*
X35374D02*
X35453Y18848D01*
X35531Y19045D02*
X35571Y19085D01*
X35649D01*
X35689Y19045D01*
Y19006D01*
X35649Y18966D01*
X35610D01*
X35649D01*
X35689Y18927D01*
Y18888D01*
X35649Y18848D01*
X35571D01*
X35531Y18888D01*
X37352Y18031D02*
Y17835D01*
X37392Y17795D01*
X37470D01*
X37510Y17835D01*
Y18031D01*
X37589Y17795D02*
X37667D01*
X37628D01*
Y18031D01*
X37589Y17992D01*
X37441Y21417D02*
X37362D01*
X37402D01*
Y21220D01*
X37362Y21181D01*
X37323D01*
X37283Y21220D01*
X37520Y21181D02*
X37598D01*
X37559D01*
Y21417D01*
X37520Y21378D01*
X34892Y16378D02*
X34813D01*
X34852D01*
Y16181D01*
X34813Y16142D01*
X34774D01*
X34734Y16181D01*
X35128Y16142D02*
X34970D01*
X35128Y16299D01*
Y16339D01*
X35088Y16378D01*
X35010D01*
X34970Y16339D01*
X38908Y20403D02*
X38947Y20325D01*
X39026Y20246D01*
X39104D01*
X39144Y20285D01*
Y20364D01*
X39104Y20403D01*
X39065D01*
X39026Y20364D01*
Y20246D01*
X38908Y20640D02*
X38947Y20561D01*
X39026Y20482D01*
X39104D01*
X39144Y20522D01*
Y20600D01*
X39104Y20640D01*
X39065D01*
X39026Y20600D01*
Y20482D01*
X38947Y20718D02*
X38908Y20758D01*
Y20836D01*
X38947Y20876D01*
X39104D01*
X39144Y20836D01*
Y20758D01*
X39104Y20718D01*
X38947D01*
X39144Y20954D02*
X38986D01*
Y20994D01*
X39026Y21033D01*
X39144D01*
X39026D01*
X38986Y21073D01*
X39026Y21112D01*
X39144D01*
Y21191D02*
X38986D01*
X38908Y21269D01*
X38986Y21348D01*
X39144D01*
X39026D01*
Y21191D01*
X38917Y19646D02*
Y19567D01*
X38957Y19528D01*
X39114D01*
X39154Y19567D01*
Y19646D01*
X39114Y19685D01*
X38957D01*
X38917Y19646D01*
X38996Y19764D02*
X39114D01*
X39154Y19803D01*
Y19921D01*
X38996D01*
X38957Y20039D02*
X38996D01*
Y20000D01*
Y20079D01*
Y20039D01*
X39114D01*
X39154Y20079D01*
X33248Y14754D02*
Y14833D01*
Y14793D01*
X33484D01*
Y14754D01*
Y14833D01*
Y14951D02*
X33327D01*
Y15069D01*
X33366Y15108D01*
X33484D01*
Y15580D02*
Y15423D01*
X33327Y15580D01*
X33287D01*
X33248Y15541D01*
Y15462D01*
X33287Y15423D01*
X33484Y15777D02*
X33248D01*
X33366Y15659D01*
Y15817D01*
X33248Y15895D02*
X33406D01*
X33484Y15974D01*
X33406Y16053D01*
X33248D01*
D32*
X4911Y10258D02*
D03*
X12195D02*
D03*
X19478D02*
D03*
X26762D02*
D03*
X34045D02*
D03*
X4911Y19904D02*
D03*
X12195D02*
D03*
X19478D02*
D03*
X26762D02*
D03*
X34045D02*
D03*
M02*
